<?xml version="1.0" encoding="UTF-8" standalone="no"?>
<svg
   xmlns:dc="http://purl.org/dc/elements/1.1/"
   xmlns:cc="http://creativecommons.org/ns#"
   xmlns:rdf="http://www.w3.org/1999/02/22-rdf-syntax-ns#"
   xmlns:svg="http://www.w3.org/2000/svg"
   xmlns="http://www.w3.org/2000/svg"
   viewBox="0 0 192 192"
   height="192"
   width="192"
   xml:space="preserve"
   id="svg2"
   version="1.1"><metadata
     id="metadata8"><rdf:RDF><cc:Work
         rdf:about=""><dc:format>image/svg+xml</dc:format><dc:type
           rdf:resource="http://purl.org/dc/dcmitype/StillImage" /></cc:Work></rdf:RDF></metadata><defs
     id="defs6" /><g
     transform="matrix(1.3333333,0,0,-1.3333333,0,192)"
     id="g10"><g
       transform="scale(0.1)"
       id="g12"><path
         id="path14"
         style="fill:none;stroke:#ffffff;stroke-width:20;stroke-linecap:butt;stroke-linejoin:miter;stroke-miterlimit:10;stroke-dasharray:none;stroke-opacity:1"
         d="m 438.297,1306.28 c -27.024,0 -49.024,-21.99 -49.024,-49.02 V 137.02 c 0,-27.04 22,-49.0317 49.024,-49.0317 h 591.613 c 27.03,0 49.03,21.9917 49.03,49.0317 v 1120.24 c 0,27.03 -22,49.02 -49.03,49.02 z" /><path
         id="path16"
         style="fill:#ffffff;fill-opacity:1;fill-rule:nonzero;stroke:none"
         d="M 813.047,1204.77 H 655.188 v 27.2 h 157.859 v -27.2" /><path
         id="path18"
         style="fill:none;stroke:#ffffff;stroke-width:20;stroke-linecap:butt;stroke-linejoin:miter;stroke-miterlimit:10;stroke-dasharray:none;stroke-opacity:1"
         d="m 734.125,134.18 c -42.531,0 -77.129,34.582 -77.129,77.07 0,42.531 34.598,77.109 77.129,77.109 42.516,0 77.098,-34.578 77.098,-77.109 0,-42.488 -34.582,-77.07 -77.098,-77.07 z" /><path
         id="path20"
         style="fill:#ffffff;fill-opacity:1;fill-rule:nonzero;stroke:none"
         d="M 710.078,952.594 H 534.469 V 776.996 h 175.609 v 175.598 z m -20,-20 V 796.996 H 554.469 v 135.598 h 135.609" /><path
         id="path22"
         style="fill:#ffffff;fill-opacity:1;fill-rule:nonzero;stroke:none"
         d="M 934.836,952.594 H 759.238 V 776.996 h 175.598 v 175.598 z m -20,-20 V 796.996 H 779.238 v 135.598 h 135.598" /><path
         id="path24"
         style="fill:#ffffff;fill-opacity:1;fill-rule:nonzero;stroke:none"
         d="M 710.078,728.082 H 534.469 V 552.461 h 175.609 v 175.621 z m -20,-20 V 572.461 H 554.469 v 135.621 h 135.609" /><path
         id="path26"
         style="fill:none;stroke:#ffffff;stroke-width:20;stroke-linecap:butt;stroke-linejoin:miter;stroke-miterlimit:10;stroke-dasharray:none;stroke-opacity:1"
         d="M 1010.29,334.371 H 457.938 v 812.889 h 552.352 z" /></g></g></svg>